Intro to R - Extra Materials, Useful Packages
…
I had purposely added in a new column which i named empty column, just to demonstrate this.

#Removing empty rows and columns from our data
#specifying using a vectors to remove both rows and columns
#here we specify the dataset first
#And then wheether we want to do it row or columns
#In this case its both
removed_empty_data <- janitor::remove_empty(cleaned_names_bike_data,
                                            c("rows", "cols"))

#To display the data
removed_empty_data

## # A tibble: 733 x 10
##    date  real_temperature feel_temperature humidity wind_speed weather_code
##    <chr>            <dbl>            <dbl>    <dbl>      <dbl> <chr>       
##  1 04/0~             2.75             0        93         7.5  broken_clou~
##  2 05/0~             9                7.25     81.5       8.85 broken_clou~
##  3 04/0~             2.75             0        93         7.5  broken_clou~
##  4 05/0~             9                7.25     81.5       8.85 broken_clou~
##  5 06/0~             8                5.75     79.8      16    clear       
##  6 07/0~             9                5.5      81        19.8  scattered_c~
##  7 08/0~             9                6.75     79.5      20.5  rain        
##  8 08/0~             9                6.75     79.5      20.5  rain        
##  9 09/0~            13               13        75.8      32.9  broken_clou~
## 10 10/0~            11.5             11.5      66.8      34.3  broken_clou~
## # ... with 723 more rows, and 4 more variables: is_holiday <lgl>,
## #   is_weekend <lgl>, season <chr>, count <dbl>
…
#To remove the duplicate data
#Here we use dplyr distinct function
#here we are removing rows using the columns date and count
#`.keep_all` function is used to retain all other variables in the output data frame
removed_duplicates_data <-  dplyr::distinct(removed_empty_data, date, count, .keep_all = T)

#To display the data without duplicates
removed_duplicates_data

## # A tibble: 730 x 10
##    date  real_temperature feel_temperature humidity wind_speed weather_code
##    <chr>            <dbl>            <dbl>    <dbl>      <dbl> <chr>       
##  1 04/0~             2.75             0        93         7.5  broken_clou~
##  2 05/0~             9                7.25     81.5       8.85 broken_clou~
##  3 06/0~             8                5.75     79.8      16    clear       
##  4 07/0~             9                5.5      81        19.8  scattered_c~
##  5 08/0~             9                6.75     79.5      20.5  rain        
##  6 09/0~            13               13        75.8      32.9  broken_clou~
##  7 10/0~            11.5             11.5      66.8      34.3  broken_clou~
##  8 11/0~             7.75             3.75     69        26.6  clear       
##  9 12/0~            11.5             11.5      76.5      28.2  rain        
## 10 13/0~             9                6        74.8      21.2  rain        
## # ... with 720 more rows, and 4 more variables: is_holiday <lgl>,
## #   is_weekend <lgl>, season <chr>, count <dbl>
…
We can gather each quarter to be within one column.

We can also gather the values within each quarter in a second column variable.

#example showing how to use pivot longer
#here we specify the names
#also the values
#and the columns to be gathered
pivot_longer_example <- revenue_dataset %>% 
  pivot_longer(names_to = "quarter", values_to = "income", cols=quarter_one:quarter_four)

#To display the data
pivot_longer_example

## # A tibble: 80 x 3
##     year quarter       income
##    <dbl> <chr>          <dbl>
##  1  1999 quarter_one      0  
##  2  1999 quarter_two      0.6
##  3  1999 quarter_three    0.5
##  4  1999 quarter_four     0.2
##  5  2000 quarter_one      0.9
##  6  2000 quarter_two      0.2
##  7  2000 quarter_three    0.9
##  8  2000 quarter_four     0.5
##  9  2001 quarter_one      0.7
## 10  2001 quarter_two      0.7
## # ... with 70 more rows
…
2.2.2 separate()

Splits a single columns into a single column.

separate() pulls apart one column into multiple columns, by splitting wherever a separator character appears.

Sometimes a single column variable can have multiple variables.

Below we can split the quarter column, into two columns, one containing which quarter and one containing which number.

#To display the data
pivot_longer_example

## # A tibble: 80 x 3
##     year quarter       income
##    <dbl> <chr>          <dbl>
##  1  1999 quarter_one      0  
##  2  1999 quarter_two      0.6
##  3  1999 quarter_three    0.5
##  4  1999 quarter_four     0.2
##  5  2000 quarter_one      0.9
##  6  2000 quarter_two      0.2
##  7  2000 quarter_three    0.9
##  8  2000 quarter_four     0.5
##  9  2001 quarter_one      0.7
## 10  2001 quarter_two      0.7
## # ... with 70 more rows

#example showing how to use separate
#here we specify the column we want to separate
# and what we want to separe into
separated_data_example <- pivot_longer_example %>% 
  separate(col = "quarter", into = c("quarter", "number"), sep="_")

#To display the data
separated_data_example

## # A tibble: 80 x 4
##     year quarter number income
##    <dbl> <chr>   <chr>   <dbl>
##  1  1999 quarter one       0  
##  2  1999 quarter two       0.6
##  3  1999 quarter three     0.5
##  4  1999 quarter four      0.2
##  5  2000 quarter one       0.9
##  6  2000 quarter two       0.2
##  7  2000 quarter three     0.9
##  8  2000 quarter four      0.5
##  9  2001 quarter one       0.7
## 10  2001 quarter two       0.7
## # ... with 70 more rows
…
2.2.3 unite()

Combines multiple columns into a single column.

unite() is the inverse of separate(): it combines multiple columns into a single column. Youll need it much less frequently than separate(), but its still a useful tool to have in your back pocket.

Sometimes you might want to combine the values of two variables.The unite function can be used to paste together 2 variables into one.

Here we will combine the quarter and number which we separated in the previous example into one column.

#To display the data
separated_data_example

## # A tibble: 80 x 4
##     year quarter number income
##    <dbl> <chr>   <chr>   <dbl>
##  1  1999 quarter one       0  
##  2  1999 quarter two       0.6
##  3  1999 quarter three     0.5
##  4  1999 quarter four      0.2
##  5  2000 quarter one       0.9
##  6  2000 quarter two       0.2
##  7  2000 quarter three     0.9
##  8  2000 quarter four      0.5
##  9  2001 quarter one       0.7
## 10  2001 quarter two       0.7
## # ... with 70 more rows

In this case we also need to use the sep argument. The default will place an underscore (_) between the values from different columns.

#example showing how to use unite
#here we specify the column we want to unite
united_data_example <- separated_data_example %>% 
  unite(col = united_quarter, quarter, number, sep = "_")

#To display the data
united_data_example

## # A tibble: 80 x 3
##     year united_quarter income
##    <dbl> <chr>           <dbl>
##  1  1999 quarter_one       0  
##  2  1999 quarter_two       0.6
##  3  1999 quarter_three     0.5
##  4  1999 quarter_four      0.2
##  5  2000 quarter_one       0.9
##  6  2000 quarter_two       0.2
##  7  2000 quarter_three     0.9
##  8  2000 quarter_four      0.5
##  9  2001 quarter_one       0.7
## 10  2001 quarter_two       0.7
## # ... with 70 more rows

This recreates our original gathered dataset.

2.2.4 pivot_wider(), was previously spread()

pivot_wider() is the opposite of pivot_longer(). You use it when an observation is scattered across multiple rows.

This is used to reshape long format data to wide format data.

We can separate the column quarter below in multiple columns.

#To display the data
united_data_example

## # A tibble: 80 x 3
##     year united_quarter income
##    <dbl> <chr>           <dbl>
##  1  1999 quarter_one       0  
##  2  1999 quarter_two       0.6
##  3  1999 quarter_three     0.5
##  4  1999 quarter_four      0.2
##  5  2000 quarter_one       0.9
##  6  2000 quarter_two       0.2
##  7  2000 quarter_three     0.9
##  8  2000 quarter_four      0.5
##  9  2001 quarter_one       0.7
## 10  2001 quarter_two       0.7
## # ... with 70 more rows
…
#creating a function

USD_to_GBP <- function(dollar){
  # rate in Jan 2020
  return(dollar * 0.7693)
}

Now we just have to apply the function to our object of interest:

#example of modify

dplyr::select(titanic, fare) %>% purrr::modify(USD_to_GBP)

## # A tibble: 1,309 x 1
##     fare
##    <dbl>
##  1 163. 
##  2 117. 
##  3 117. 
##  4 117. 
##  5 117. 
##  6  20.4
##  7  60.0
##  8   0  
##  9  39.6
## 10  38.1
## # ... with 1,299 more rows
…
#using modify to find the typof in every column in the titanic dataset
purrr::modify(titanic, typeof)

## # A tibble: 1,309 x 11
##    pclass survived name   sex    age    sibsp  parch ticket fare  cabin embarked
##    <chr>  <chr>    <chr>  <chr>  <chr>  <chr>  <chr> <chr>  <chr> <chr> <chr>   
##  1 double double   chara~ chara~ double double doub~ chara~ doub~ char~ charact~
##  2 double double   chara~ chara~ double double doub~ chara~ doub~ char~ charact~
##  3 double double   chara~ chara~ double double doub~ chara~ doub~ char~ charact~
##  4 double double   chara~ chara~ double double doub~ chara~ doub~ char~ charact~
##  5 double double   chara~ chara~ double double doub~ chara~ doub~ char~ charact~
##  6 double double   chara~ chara~ double double doub~ chara~ doub~ char~ charact~
##  7 double double   chara~ chara~ double double doub~ chara~ doub~ char~ charact~
##  8 double double   chara~ chara~ double double doub~ chara~ doub~ char~ charact~
##  9 double double   chara~ chara~ double double doub~ chara~ doub~ char~ charact~
## 10 double double   chara~ chara~ double double doub~ chara~ doub~ char~ charact~
## # ... with 1,299 more rows
…
